Semestre,Cód.,Disciplina,Turma,Tipo (1),CHS (2),CHT (3),Créd.,Média,Freq. (4),Per. (5),Ano,Situação/Professores
2,HT22HM,Historia Da Técnica E Da Tecnologia,HUMA4,R,2,30,2,7.0,94.4,2,2018,Aprovado
2,PS22HM,Psicologia Aplicada Ao Trabalho,HUMA7,R,2,30,2,9.0,100.0,2,2020,Aprovado
2,QV22HM,Qualidade De Vida,HUMA5,A,2,30,2,10.0,100.0,1,2020,Aprovado
