Codigo,Disciplina,Turma,Vagas Total,Vagas Calouros,Reserva,Prioridade - Curso,Horarios,Professores,Optativas
AE22CP,Algorítmos E Estruturas De Dados 1   ,2CPA,26,0,Aberta,['Eng De Computação'],"['2T4', '2T5', '5T2', '5T3', '6T4', '6T5']",['Jefferson Tales Oliva'],['Não']
AE22CP,Algorítmos E Estruturas De Dados 1   ,2CPB,22,0,Aberta,['Eng De Computação'],"['2N1', '2N2', '5T2', '5T3', '6T4', '6T5']",['Jefferson Tales Oliva'],['Não']
AE23CP,Algorítmos E Estruturas De Dados 2   ,3CP,44,0,Aberta,['Eng De Computação'],"['2T2', '2T3', '3T4', '3T5']",['Jefferson Tales Oliva'],['Não']
AC24MC,Análise De Circuitos Elétricos 1   ,4MC,22,0,Aberta,['Eng Mecânica'],"['3M2', '3M3', '6M2', '6M3']",['Ana Cristina Alves Silveira Lima'],['Não']
AC24MC,Análise De Circuitos Elétricos 1   ,4MCE,22,0,Aberta,['Eng Mecânica'],"['3M2', '3M3', '6M2', '6M3']",['Alexandre Batista De Jesus Soares'],['Não']
AC24NB,Análise De Circuitos Elétricos 1   ,4CP,44,0,Aberta,['Eng De Computação'],"['2T4', '2T5', '4T4', '4T5']",['Jorge Luis Roel Ortiz'],['Não']
AC24NB,Análise De Circuitos Elétricos 1   ,4EL,44,0,Aberta,['Engenharia Elétrica'],"['3M2', '3M3', '6M2', '6M3']",['Jorge Luis Roel Ortiz'],['Não']
AC25EL,Análise De Circuitos Elétricos 2   ,5EL,44,0,Aberta,['Engenharia Elétrica'],"['3T2', '3T3', '6T2', '6T3']",['Ana Cristina Alves Silveira Lima'],['Não']
AP23S,Análise E Projeto De Sistemas   ,3SI,20,0,Aberta,['Tec Analise Des Sist'],"['4N3', '4N4', '4N5', '6N1', '6N2']",['Eliane Maria De Bortoli Favero'],['Não']
AP25CP,Análise E Projeto De Sistemas   ,5CP,44,0,Aberta,['Eng De Computação'],"['2N3', '2N4', '3N4', '3N5']",['Eliane Maria De Bortoli Favero'],['Não']
AO26CP,Arquitetura E Organização De Computadores   ,6CP,44,0,Aberta,['Eng De Computação'],"['4N1', '4N2', '5T2', '5T3']",['Giovanni Alfredo Guarneri'],['Não']
AC29CP,Automação E Controle Discreto   ,9CP,22,0,Fechada,['Eng De Computação'],"['3T4', '3T5', '5T4', '5T5']",['Cesar Rafael Claure Torrico'],['Engenharia De Computação 2011']
AC29EL,Automação E Controle Discreto   ,10EL,22,0,Aberta,['Engenharia Elétrica'],"['3T4', '3T5', '5T4', '5T5']",['Cesar Rafael Claure Torrico'],['Engenharia Elétrica.']
BD26CP,Banco De Dados 1   ,6CP,44,0,Aberta,['Eng De Computação'],"['4T2', '4T3', '5T4', '5T5']",['Marcelo Teixeira'],['Não']
BD27CP,Banco De Dados 2   ,7CP,44,0,Aberta,['Eng De Computação'],"['4T4', '4T5', '6T4', '6T5']",['Ives Rene Venturini Pola'],['Não']
CD24CP,Circuitos Digitais   ,4CP,44,0,Aberta,['Eng De Computação'],"['5T3', '5T4', '5T5', '6T2', '6T3']",['Gustavo Gomes Kuhn'],['Não']
CD24EL,Circuitos Digitais   ,4ELA,15,0,Aberta,['Engenharia Elétrica'],"['2T1', '2T2', '2T3', '5M2', '5M3']",['Andre Macario Barros'],['Não']
CD24EL,Circuitos Digitais   ,4ELB,15,0,Aberta,['Engenharia Elétrica'],"['2M2', '2M3', '2M4', '5M2', '5M3']",['Andre Macario Barros'],['Não']
CA21NB,Ciências Do Ambiente   ,1EL,55,44,Aberta,['Engenharia Elétrica'],"['6T1', '6T2']",['Elizangela Marcelo Siliprandi'],['Não']
CA22NB,Ciências Do Ambiente   ,2CV,44,0,Aberta,['Engenharia Civil'],"['5M4', '5M5']",['Elizangela Marcelo Siliprandi'],['Não']
CA22NB,Ciências Do Ambiente   ,2MC,44,0,Aberta,['Eng Mecânica'],"['3M4', '3M5']",['Jose Miguel Etchalus'],['Não']
CA23NB,Ciências Do Ambiente   ,3CP,44,0,Aberta,['Eng De Computação'],"['3N3', '3N4']",['Jose Miguel Etchalus'],['Não']
CO28CP,Compiladores   ,6CP,44,0,Aberta,['Eng De Computação'],"['2T2', '2T3', '3T4', '3T5']",['Marco Antonio De Castro Barbosa'],['Não']
CL21NB,Comunicação Linguística   ,1CP,51,44,Aberta,['Eng De Computação'],"['4N1', '4N2']",['Vanda Mari Trombetta'],['Não']
CL21NB,Comunicação Linguística   ,1EL,55,44,Aberta,['Engenharia Elétrica'],"['2T2', '2T3']",['Vanda Mari Trombetta'],['Não']
CL21NB,Comunicação Linguística   ,1MC,51,44,Aberta,['Eng Mecânica'],"['4T2', '4T3']","['Adriana Santos Auzani', 'Diego Gomes Do Valle']",['Não']
CL21S,Comunicação Linguística   ,1SI,35,26,Aberta,['Tec Analise Des Sist'],"['3N1', '3N2']",['Marcia Oberderfer Consoli'],['Não']
CL22NB,Comunicação Linguística   ,2CV,51,0,Aberta,['Engenharia Civil'],"['3T4', '3T5']",['Leticia Lemos Gritti'],['Não']
CO31M,Comunicação Oral E Escrita   ,1MN,28,26,Aberta,['Tec Manutenção'],"['3N3', '3N4', '3N5']",['Marcia Oberderfer Consoli'],['Não']
CO31QB,Comunicação Oral E Escrita   ,1QB,46,44,Aberta,['Química'],"['4T4', '4T5']",['Vanda Mari Trombetta'],['Não']
CD27CP,Controle Digital   ,7CP,44,0,Aberta,['Eng De Computação'],"['3T4', '3T5', '5T2', '5T3']",['Emerson Giovani Carati'],['Não']
CD27EL,Controle Digital   ,7EL,24,0,Aberta,['Engenharia Elétrica'],"['3T2', '3T3', '5M4', '5M5']",['Emerson Giovani Carati'],['Não']
CA32QB,Cálculo 2   ,2QB,44,0,Aberta,['Química'],"['4M4', '4M5', '6M4', '6M5']",['Santos Richard Wieller Sanguino Bejarano'],['Não']
CD21NB,Cálculo Diferencial E Integral 1   ,1CP,51,44,Aberta,['Eng De Computação'],"['2T2', '2T3', '3T4', '3T5', '6T2', '6T3']",['Alcione Cappelin'],['Não']
CD21NB,Cálculo Diferencial E Integral 1   ,1CV,50,44,Aberta,['Engenharia Civil'],"['2M2', '2M3', '5M2', '5M3', '6M2', '6M3']",['Dayse Regina Batistus'],['Não']
CD21NB,Cálculo Diferencial E Integral 1   ,1EADCD,100,0,Aberta,"['Eng De Computação', 'Engenharia Elétrica', 'Engenharia Civil', 'Eng Mecânica']","['2N1', '2N2', '2N3', '4N1', '4N2', '4N3']",['Waldir Silva Soares Junior'],['Não']
CD21NB,Cálculo Diferencial E Integral 1   ,1EL,55,44,Aberta,['Engenharia Elétrica'],"['2M4', '2M5', '4M4', '4M5', '5M4', '5M5']",['Dayse Regina Batistus'],['Não']
CD21NB,Cálculo Diferencial E Integral 1   ,1EXT,44,0,Aberta,"['Eng De Computação', 'Engenharia Elétrica', 'Engenharia Civil', 'Eng Mecânica']","['2T5', '2T6', '4T5', '4T6', '6T5', '6T6']",['Romel Da Rosa Da Silva'],['Não']
CD21NB,Cálculo Diferencial E Integral 1   ,1MC,51,44,Aberta,['Eng Mecânica'],"['2T4', '2T5', '5T4', '5T5', '6T4', '6T5']",['Alcione Cappelin'],['Não']
CD21NB,Cálculo Diferencial E Integral 1   ,2EXT,44,0,Aberta,"['Eng De Computação', 'Engenharia Elétrica', 'Engenharia Civil', 'Eng Mecânica']","['4N3', '4N4', '4N5', '6N3', '6N4', '6N5']","['Edson Airton Gambetta', 'Mateus Eduardo Salomao']",['Não']
CD22NB,Cálculo Diferencial E Integral 2   ,2CP,43,0,Aberta,['Eng De Computação'],"['2T2', '2T3', '4T2', '4T3']",['Santos Richard Wieller Sanguino Bejarano'],['Não']
CD22NB,Cálculo Diferencial E Integral 2   ,2CV,60,0,Aberta,['Engenharia Civil'],"['3M2', '3M3', '5M2', '5M3']",['Michael Santos Gonzales Gargate'],['Não']
CD22NB,Cálculo Diferencial E Integral 2   ,2EL,44,0,Aberta,['Engenharia Elétrica'],"['3M4', '3M5', '5M4', '5M5']",['Michael Santos Gonzales Gargate'],['Não']
CD22NB,Cálculo Diferencial E Integral 2   ,2MC,44,0,Aberta,['Eng Mecânica'],"['2T4', '2T5', '4T4', '4T5']",['Santos Richard Wieller Sanguino Bejarano'],['Não']
CD22NB,Cálculo Diferencial E Integral 2   ,EXT,28,0,Aberta,"['Eng De Computação', 'Engenharia Elétrica', 'Engenharia Civil', 'Eng Mecânica']","['3T5', '3T6', '5T5', '5T6']",['Michael Santos Gonzales Gargate'],['Não']
CD23NB,Cálculo Diferencial E Integral 3   ,3CP,44,0,Aberta,['Eng De Computação'],"['3N1', '3N2', '5N1', '5N2']",['Adriano Rodrigo Delfino'],['Não']
CD23NB,Cálculo Diferencial E Integral 3   ,3CV,44,0,Aberta,['Engenharia Civil'],"['3T2', '3T3', '4T2', '4T3']",['Jackson Luchesi'],['Não']
CD23NB,Cálculo Diferencial E Integral 3   ,3EL,44,0,Aberta,['Engenharia Elétrica'],"['3M2', '3M3', '6M2', '6M3']",['Jackson Luchesi'],['Não']
CD23NB,Cálculo Diferencial E Integral 3   ,3MC,44,0,Aberta,['Eng Mecânica'],"['3T4', '3T5', '5T4', '5T5']",['Adriano Rodrigo Delfino'],['Não']
CD23NB,Cálculo Diferencial E Integral 3   ,EXT,44,0,Aberta,"['Eng De Computação', 'Engenharia Elétrica', 'Engenharia Civil', 'Eng Mecânica']","['4T5', '4T6', '6T5', '6T6']",['Jackson Luchesi'],['Não']
CN24NB,Cálculo Numérico   ,4CP,44,0,Aberta,['Eng De Computação'],"['4N1', '4N2', '6N1', '6N2']",['Vanderlei Martins'],['Não']
CN24NB,Cálculo Numérico   ,4CV,44,0,Aberta,['Engenharia Civil'],"['4T2', '4T3', '6T2', '6T3']",['Aureo Quintas Garcia'],['Não']
CN24NB,Cálculo Numérico   ,4EL,44,0,Aberta,['Engenharia Elétrica'],"['4M4', '4M5', '6M4', '6M5']",['Vanderlei Martins'],['Não']
CN24NB,Cálculo Numérico   ,4MC,44,0,Aberta,['Eng Mecânica'],"['4T4', '4T5', '6T4', '6T5']",['Aureo Quintas Garcia'],['Não']
DT22NB,Desenho Técnico   ,2CP,44,0,Aberta,['Eng De Computação'],"['2N3', '2N4', '2N5']",['Osmar Joao Consoli'],['Não']
AD23S,Desenvolvimento De Aplicações Distribuídas   ,4SI,20,0,Aberta,['Tec Analise Des Sist'],"['2N3', '2N4', '2N5', '6N1', '6N2']",['Luis Cassiano Goularte Rista'],['Não']
EC25G,Economia   ,3G,55,0,Aberta,['Agronomia'],"['6T2', '6T3']",['Elizangela Mara Carvalheiro'],['Não']
EC26NB,Economia   ,6MC,44,0,Aberta,['Eng Mecânica'],"['5T4', '5T5']",['Denise Rauber'],['Não']
EC27EL,Economia   ,7EL,44,0,Aberta,['Engenharia Elétrica'],"['5T2', '5T3']",['Denise Rauber'],['Não']
EC29NB,Economia   ,9CP,44,0,Aberta,['Eng De Computação'],"['5T4', '5T5']",['Denise Rauber'],['Não']
EC32B,Economia   ,2B,34,0,Aberta,['Ciências Contábeis'],"['2N1', '2N2', '2N3']",['Elizangela Mara Carvalheiro'],['Não']
EO37QB,Economia E Organização Industrial   ,7QB,44,0,Aberta,['Química'],"['4T4', '4T5']",['Denise Rauber'],['Não']
EG24EL,Eletromagnetismo Para Engenharia   ,4EL,30,0,Aberta,['Engenharia Elétrica'],"['3T4', '3T5', '6T4', '6T5']",['Filomena Barbosa Rodrigues Mendes'],['Não']
EL25CP,Eletrônica A   ,5CP,44,0,Aberta,['Eng De Computação'],"['3T4', '3T5', '5T3', '5T4', '5T5']",['Diogo Ribeiro Vargas'],['Não']
EL25EL,Eletrônica A   ,5ELA,22,0,Aberta,['Engenharia Elétrica'],"['3M2', '3M3', '5M3', '5M4', '5M5']",['Carlos Marcelo De Oliveira Stein'],['Não']
EL25EL,Eletrônica A   ,5ELB,22,0,Aberta,['Engenharia Elétrica'],"['3M4', '3M5', '5M3', '5M4', '5M5']",['Carlos Marcelo De Oliveira Stein'],['Não']
EL26CP,Eletrônica B   ,6CP,44,0,Aberta,['Eng De Computação'],"['2N3', '2N4', '3N3', '3N4']",['Marcelo Flavio Guepfrih'],['Não']
EL26EL,Eletrônica B   ,6EL,22,0,Aberta,['Engenharia Elétrica'],"['3T4', '3T5', '5T4', '5T5']",['Juliano De Pelegrini Lopes'],['Não']
EL27EL,Eletrônica C   ,7EL,25,0,Aberta,['Engenharia Elétrica'],"['3M4', '3M5', '6M4', '6M5']",['Diogo Ribeiro Vargas'],['Não']
ET29EL,Eletrônica De Potência   ,8EL,22,0,Aberta,['Engenharia Elétrica'],"['3T2', '3T3', '6T2', '6T3']",['Marcelo Flavio Guepfrih'],['Engenharia Elétrica.']
EE25S,Empreendedorismo   ,5SI,26,0,Aberta,['Tec Analise Des Sist'],"['5N3', '5N4']",['Neimar Follmann'],['Não']
EM29MC,Empreendedorismo   ,9MC,44,0,Aberta,['Eng Mecânica'],"['4T4', '4T5']",['Elizandra Machado Follmann'],['Não']
EM35M,Empreendedorismo   ,5MN,26,0,Aberta,['Tec Manutenção'],"['5N1', '5N2']",['Norma Brambilla'],['Não']
EE27CP,Empreendedorismo A   ,9CP,44,0,Aberta,['Eng De Computação'],"['2T3', '2T4', '2T5']",['Neimar Follmann'],['Não']
EE29EL,Empreendedorismo A   ,9EL,44,0,Aberta,['Engenharia Elétrica'],"['2T3', '2T4', '2T5']",['Neimar Follmann'],['Não']
ES26CP,Engenharia De Software   ,6CP,44,0,Aberta,['Eng De Computação'],"['2T1', '3T1', '3T2', '3T3']",['Viviane Dal Molin De Souza'],['Não']
ED23NB,Equações Diferenciais Ordinárias   ,3CP,44,0,Aberta,['Eng De Computação'],"['2N1', '2N2', '4N1', '4N2']",['Joao Biesdorf'],['Não']
ED23NB,Equações Diferenciais Ordinárias   ,3CV,44,0,Aberta,['Engenharia Civil'],"['4M2', '4M3', '5M2', '5M3']",['Adriano Rodrigo Delfino'],['Não']
ED23NB,Equações Diferenciais Ordinárias   ,3EL,44,0,Aberta,['Engenharia Elétrica'],"['4M4', '4M5', '6M4', '6M5']",['Teodora Pinheiro Figueroa'],['Não']
ED23NB,Equações Diferenciais Ordinárias   ,3MC,44,0,Aberta,['Eng Mecânica'],"['2T4', '2T5', '4T4', '4T5']",['Marieli Musial Tumelero'],['Não']
ED23NB,Equações Diferenciais Ordinárias   ,EXT,44,0,Aberta,"['Eng De Computação', 'Engenharia Elétrica', 'Engenharia Civil', 'Eng Mecânica']","['3N1', '3T6', '5N1', '5T6']",['Joao Biesdorf'],['Não']
FT23NB,Fenômenos Dos Transportes   ,3CP,44,0,Aberta,['Eng De Computação'],"['4T2', '4T3', '6T2', '6T3']",['Geocris Rodrigues Dos Santos'],['Não']
FT23NB,Fenômenos Dos Transportes   ,3EL,22,0,Aberta,['Engenharia Elétrica'],"['4M2', '4M3', '5M2', '5M3']",['Geocris Rodrigues Dos Santos'],['Não']
FP21NB,Fundamentos De Programação   ,1CPA,23,22,Aberta,['Eng De Computação'],"['4T1', '4T2', '4T3', '5T1', '5T2', '5T3']",['Mariza Miola Dosciatti'],['Não']
FP21NB,Fundamentos De Programação   ,1CPB,24,22,Aberta,['Eng De Computação'],"['4T1', '4T2', '4T3', '5T1', '5T2', '5T3']",['Mariza Miola Dosciatti'],['Não']
FP21NB,Fundamentos De Programação   ,1CPE,48,0,Aberta,['Eng De Computação'],"['4T1', '4T2', '4T3', '5T1', '5T2', '5T3']",['Rubia Eliza De Oliveira Schultz Ascari'],['Não']
FP21S,Fundamentos De Programação   ,1SI,35,26,Aberta,['Tec Analise Des Sist'],"['2N3', '2N4', '2N5', '4N3', '4N4', '4N5']",['Mariza Miola Dosciatti'],['Não']
FT25CP,Fundamentos De Teoria Da Computação   ,5CP,44,0,Aberta,['Eng De Computação'],"['2T4', '2T5', '4T4', '4T5']",['Marco Antonio De Castro Barbosa'],['Não']
FI21NB,Física 1   ,1CPA,28,22,Aberta,['Eng De Computação'],"['2T4', '2T5', '4T4', '4T5', '5N1', '5N2']",['Clebson Abati Graeff'],['Não']
FI21NB,Física 1   ,1CPB,23,22,Aberta,['Eng De Computação'],"['2T4', '2T5', '4T4', '4T5', '5N1', '5N2']",['Clebson Abati Graeff'],['Não']
FI21NB,Física 1   ,1CVA,24,22,Aberta,['Engenharia Civil'],"['2T4', '2T5', '3T2', '3T3', '5T2', '5T3']","['Neuri Antonio Lunelli', 'Marcos Paulo Belancon']",['Não']
FI21NB,Física 1   ,1CVB,26,22,Aberta,['Engenharia Civil'],"['2T4', '2T5', '3T2', '3T3', '5T2', '5T3']","['Neuri Antonio Lunelli', 'Marcos Paulo Belancon']",['Não']
FI21NB,Física 1   ,1ELA,26,22,Aberta,['Engenharia Elétrica'],"['2T4', '2T5', '4T2', '4T3', '4T4', '4T5']","['Neuri Antonio Lunelli', 'Cesar Augusto Refosco Yednak']",['Não']
FI21NB,Física 1   ,1ELB,29,22,Aberta,['Engenharia Elétrica'],"['2T4', '2T5', '4T2', '4T3', '4T4', '4T5']","['Neuri Antonio Lunelli', 'Cesar Augusto Refosco Yednak']",['Não']
FI21NB,Física 1   ,1EXTA,22,0,Aberta,"['Eng De Computação', 'Engenharia Elétrica', 'Engenharia Civil', 'Eng Mecânica']","['3T4', '3T5', '4T4', '4T5', '5T4', '5T5']","['Keli Cristina Maurina', 'Marcos Paulo Belancon']",['Não']
FI21NB,Física 1   ,1EXTB,22,0,Aberta,"['Eng De Computação', 'Engenharia Elétrica', 'Engenharia Civil', 'Eng Mecânica']","['3T4', '3T5', '4T4', '4T5', '5T4', '5T5']","['Keli Cristina Maurina', 'Marcos Paulo Belancon']",['Não']
FI21NB,Física 1   ,1MCA,25,22,Aberta,['Eng Mecânica'],"['2M4', '2M5', '3T2', '3T3', '4M4', '4M5']",['Clebson Abati Graeff'],['Não']
FI21NB,Física 1   ,1MCB,26,22,Aberta,['Eng Mecânica'],"['2M4', '2M5', '3T2', '3T3', '4M4', '4M5']",['Clebson Abati Graeff'],['Não']
FI21NB,Física 1   ,2EXTA,22,0,Aberta,"['Eng De Computação', 'Engenharia Elétrica', 'Engenharia Civil', 'Eng Mecânica']","['2N1', '2N2', '3N1', '3N2', '4N1', '4N2']","['Neuri Antonio Lunelli', 'Gustavo Gazzola De Lima']",['Não']
FI21NB,Física 1   ,2EXTB,22,0,Aberta,"['Eng De Computação', 'Engenharia Elétrica', 'Engenharia Civil', 'Eng Mecânica']","['2N1', '2N2', '3N1', '3N2', '4N1', '4N2']","['Neuri Antonio Lunelli', 'Gustavo Gazzola De Lima']",['Não']
FI31QB,Física 1   ,1QBA,23,22,Aberta,['Química'],"['2T2', '2T3', '3T4', '3T5', '4T2', '4T3']","['Neuri Antonio Lunelli', 'Marcelo Sandrini']",['Não']
FI31QB,Física 1   ,1QBB,23,22,Aberta,['Química'],"['2T2', '2T3', '3T4', '3T5', '4T2', '4T3']","['Neuri Antonio Lunelli', 'Marcelo Sandrini']",['Não']
FI22NB,Física 2   ,1EXTA,44,0,Aberta,"['Eng De Computação', 'Engenharia Elétrica', 'Engenharia Civil', 'Eng Mecânica']","['2T2', '2T3', '4T2', '4T3', '4T4', '4T5']","['Marcelo Sandrini', 'Carlos Andre Hernaski']",['Não']
FI22NB,Física 2   ,2CPA,27,0,Aberta,['Eng De Computação'],"['3N1', '3N2', '3T4', '3T5', '5T4', '5T5']",['Ivo De Lourenco Junior'],['Não']
FI22NB,Física 2   ,2CPB,17,0,Aberta,['Eng De Computação'],"['3N1', '3N2', '3T4', '3T5', '5T4', '5T5']",['Ivo De Lourenco Junior'],['Não']
FI22NB,Física 2   ,2CVA,22,0,Aberta,['Engenharia Civil'],"['2M4', '2M5', '3M4', '3M5', '4M4', '4M5']","['Angel Akio Tateishi', 'Marcelo Sandrini']",['Não']
FI22NB,Física 2   ,2CVB,22,0,Aberta,['Engenharia Civil'],"['2M4', '2M5', '3M4', '3M5', '4M4', '4M5']","['Angel Akio Tateishi', 'Marcelo Sandrini']",['Não']
FI22NB,Física 2   ,2ELA,44,0,Aberta,['Engenharia Elétrica'],"['2T2', '2T3', '3T2', '3T3', '4T2', '4T3']","['Tiago Kroetz', 'Angel Akio Tateishi']",['Não']
FI22NB,Física 2   ,2EXTA,44,0,Aberta,"['Eng De Computação', 'Engenharia Elétrica', 'Engenharia Civil', 'Eng Mecânica']","['3N1', '3N2', '4N1', '4N2', '5N1', '5N2']","['Marcelo Sandrini', 'Carlos Andre Hernaski']",['Não']
FI22NB,Física 2   ,2MCA,22,0,Aberta,['Eng Mecânica'],"['2M2', '2M3', '4M2', '4M3', '5M2', '5M3']",['Tiago Kroetz'],['Não']
FI22NB,Física 2   ,2MCB,22,0,Aberta,['Eng Mecânica'],"['2M2', '2M3', '4M2', '4M3', '5M2', '5M3']",['Tiago Kroetz'],['Não']
FI32QB,Física 2   ,2QBA,30,0,Aberta,['Química'],"['2T2', '2T3', '3T4', '3T5', '4T2', '4T3']","['Ivo De Lourenco Junior', 'Marcelo Sandrini']",['Não']
FI32QB,Física 2   ,2QBB,14,0,Aberta,['Química'],"['2T2', '2T3', '3T4', '3T5', '4T2', '4T3']","['Ivo De Lourenco Junior', 'Marcelo Sandrini']",['Não']
FI23NB,Física 3   ,1EXTA,25,0,Aberta,"['Eng De Computação', 'Engenharia Elétrica', 'Engenharia Civil', 'Eng Mecânica']","['2T4', '2T5', '3T4', '3T5', '4T4', '4T5']","['Jalves Sampaio Figueira', 'Carlos Andre Hernaski']",['Não']
FI23NB,Física 3   ,1EXTB,19,0,Aberta,"['Eng De Computação', 'Engenharia Elétrica', 'Engenharia Civil', 'Eng Mecânica']","['2T4', '2T5', '3T4', '3T5', '4T4', '4T5']","['Jalves Sampaio Figueira', 'Carlos Andre Hernaski']",['Não']
FI23NB,Física 3   ,3CPA,44,0,Aberta,['Eng De Computação'],"['3T2', '3T3', '5T2', '5T3', '5T4', '5T5']","['Jalves Sampaio Figueira', 'Cesar Augusto Refosco Yednak']",['Não']
FI23NB,Física 3   ,3CVA,44,0,Aberta,['Engenharia Civil'],"['3M2', '3M3', '3M4', '3M5', '5M4', '5M5']","['Jalves Sampaio Figueira', 'Cesar Augusto Refosco Yednak']",['Não']
FI23NB,Física 3   ,3ELA,24,0,Aberta,['Engenharia Elétrica'],"['3M4', '3M5', '3T4', '3T5', '5T4', '5T5']","['Jalves Sampaio Figueira', 'Angel Akio Tateishi']",['Não']
FI23NB,Física 3   ,3ELB,20,0,Aberta,['Engenharia Elétrica'],"['3M4', '3M5', '3T4', '3T5', '5T4', '5T5']","['Jalves Sampaio Figueira', 'Angel Akio Tateishi']",['Não']
FI23NB,Física 3   ,3MCA,22,0,Aberta,['Eng Mecânica'],"['2M4', '2M5', '4M4', '4M5', '6M4', '6M5']","['Jalves Sampaio Figueira', 'Gustavo Gazzola De Lima']",['Não']
FI23NB,Física 3   ,3MCB,22,0,Aberta,['Eng Mecânica'],"['2M4', '2M5', '4M4', '4M5', '6M4', '6M5']","['Jalves Sampaio Figueira', 'Gustavo Gazzola De Lima']",['Não']
FI33QB,Física 3   ,3QBA,25,0,Aberta,['Química'],"['2T2', '2T3', '4T2', '4T3', '5M4', '5M5']","['Jalves Sampaio Figueira', 'Gustavo Gazzola De Lima']",['Não']
FI33QB,Física 3   ,3QBB,19,0,Aberta,['Química'],"['2T2', '2T3', '4T2', '4T3', '5M4', '5M5']","['Jalves Sampaio Figueira', 'Gustavo Gazzola De Lima']",['Não']
GA21NB,Geometria Analítica E Álgebra Linear   ,1CP,51,44,Aberta,['Eng De Computação'],"['3N1', '3N2', '3N3', '6N1', '6N2', '6N3']",['Gilson Tumelero'],['Não']
GA21NB,Geometria Analítica E Álgebra Linear   ,1CV,50,44,Aberta,['Engenharia Civil'],"['3T4', '3T5', '5T4', '5T5', '6T4', '6T5']",['Cristina Spohr Reis'],['Não']
GA21NB,Geometria Analítica E Álgebra Linear   ,1EADGA,100,0,Aberta,"['Eng De Computação', 'Engenharia Elétrica', 'Engenharia Civil', 'Eng Mecânica']","['2T1', '2T2', '2T3', '4T1', '4T2', '4T3']",['Marieli Musial Tumelero'],['Não']
GA21NB,Geometria Analítica E Álgebra Linear   ,1EL,55,44,Aberta,['Engenharia Elétrica'],"['2M2', '2M3', '4M2', '4M3', '5M2', '5M3']",['Marcio Alexandre De Oliveira Reis'],['Não']
GA21NB,Geometria Analítica E Álgebra Linear   ,1EXT,44,0,Aberta,"['Eng De Computação', 'Engenharia Elétrica', 'Engenharia Civil', 'Eng Mecânica']","['2T5', '2T6', '3T5', '3T6', '6T5', '6T6']",['Mateus Eduardo Salomao'],['Não']
GA21NB,Geometria Analítica E Álgebra Linear   ,1MC,51,44,Aberta,['Eng Mecânica'],"['2T2', '2T3', '5T2', '5T3', '6T2', '6T3']",['Cristina Spohr Reis'],['Não']
GA21NB,Geometria Analítica E Álgebra Linear   ,2EXT,44,0,Aberta,"['Eng De Computação', 'Engenharia Elétrica', 'Engenharia Civil', 'Eng Mecânica']","['2N1', '2N2', '4N1', '4N2', '5N1', '5N2']",['Gilson Tumelero'],['Não']
GP26S,Gestão De Projetos De Software   ,5SI,20,0,Aberta,"['Tec Analise Des Sist', 'Eng De Computação']","['3N1', '3N2', '3N3']",['Eliane Maria De Bortoli Favero'],['Não']
HT22HM,Historia Da Técnica E Da Tecnologia   ,HUMA1,44,0,Aberta,"['Eng De Computação', 'Engenharia Elétrica', 'Engenharia Civil', 'Eng Mecânica']","['5N1', '5N2']",['Aruana Antonio Dos Passos'],"['Engenharia Mecânica 2', 'Engenharia Civil.', 'Engenharia Elétrica.', 'Engenharia De Computação 2011', 'Engenharia Mecânica']"
HT22HM,Historia Da Técnica E Da Tecnologia   ,HUMA2,44,0,Aberta,"['Eng De Computação', 'Engenharia Elétrica', 'Engenharia Civil', 'Eng Mecânica']","['3T4', '3T5']",['Glademir Alves Trindade'],"['Engenharia Mecânica 2', 'Engenharia Civil.', 'Engenharia Elétrica.', 'Engenharia De Computação 2011', 'Engenharia Mecânica']"
IE27CP,Instrumentação Eletro-Eletrônica   ,7CP,44,0,Aberta,['Eng De Computação'],"['3T2', '3T3', '4T2', '4T3']",['Diogo Ribeiro Vargas'],['Não']
IS29CP,Interação Ser Humano-Computador   ,8CP,31,0,Aberta,['Eng De Computação'],"['3N1', '3N2', '5N1', '5N2']",['Soelaine Rodrigues Ascari'],['Não']
IE32AE,Introdução À Economia   ,2A,11,0,Aberta,['Administração'],"['3N4', '3N5']",['Denise Rauber'],['Não']
IE21CP,Introdução À Engenharia   ,1CPA,23,22,Aberta,['Eng De Computação'],"['5T4', '5T5']",['Dalcimar Casanova'],['Não']
IE21CP,Introdução À Engenharia   ,1CPB,28,22,Aberta,['Eng De Computação'],"['6T4', '6T5']",['Dalcimar Casanova'],['Não']
IE21NB,Introdução À Engenharia   ,1CV,50,44,Aberta,['Engenharia Civil'],"['6M4', '6M5']",['Volmir Sabbi'],['Não']
IE21NB,Introdução À Engenharia   ,1MC,51,44,Aberta,['Eng Mecânica'],"['4M2', '4M3']",['Diego Rizzotto Rossetto'],['Não']
LC21CP,Lógica Para Computação   ,1CP,51,44,Aberta,['Eng De Computação'],"['2N1', '2N2', '4N3', '4N4']",['Kathya Silvia Collazos Linares'],['Não']
LR27CP,Lógica Reconfigurável   ,7CP,44,0,Aberta,['Eng De Computação'],"['2N1', '2N2', '3N1', '3N2']",['Andre Macario Barros'],['Não']
MD24CP,Matemática Discreta Para Eng De Computação   ,4CP,44,0,Aberta,['Eng De Computação'],"['3N1', '3N2', '4T2', '4T3']",['Kathya Silvia Collazos Linares'],['Não']
MF24NB,Mecânica Dos Fluídos 1   ,4MC,44,0,Aberta,['Eng Mecânica'],"['3T1', '3T2', '3T3']",['Joviano Janjar Casarin'],['Não']
MF24NB,Mecânica Dos Fluídos 1   ,5CV,44,0,Aberta,['Engenharia Civil'],"['5M1', '5M2', '5M3']",['Joviano Janjar Casarin'],['Não']
MG22NB,Mecânica Geral 1   ,2EL,44,0,Aberta,['Engenharia Elétrica'],"['5T2', '5T3', '6T4', '6T5']",['Fabio Junkes Correa'],['Não']
MG22NB,Mecânica Geral 1   ,2MC,44,0,Aberta,['Eng Mecânica'],"['5M4', '5M5', '6M4', '6M5']",['Paulo Rogerio Novak'],['Não']
MG24NB,Mecânica Geral 1   ,4CP,44,0,Aberta,['Eng De Computação'],"['2N1', '2N2', '5N1', '5N2']",['Andre Luiz Goncalves Caetano'],['Não']
MG24NB,Mecânica Geral 1   ,4CV,44,0,Aberta,['Engenharia Civil'],"['3M2', '3M3', '5M4', '5M5']",['Paulo Cezar Vitorio Junior'],['Não']
MG23NB,Mecânica Geral 2   ,3MC,44,0,Aberta,['Eng Mecânica'],"['5M2', '5M3', '6M2', '6M3']",['Fabio Rodrigo Mandello Rodrigues'],['Não']
MP24S,Metodologia Da Pesquisa   ,4SI,20,0,Aberta,['Tec Analise Des Sist'],"['3N1', '3N2']",['Samoara Viacelli Da Luz'],['Não']
MT33QB,Metodologia Da Pesquisa   ,3QB,44,0,Aberta,['Química'],"['3T2', '3T3']",['Edival Sebastiao Teixeira'],['Não']
MP21G,Metodologia De Pesquisa   ,1G,57,44,Aberta,['Agronomia'],"['3T4', '3T5']",['Marlize Rubin Oliveira'],['Não']
MP22NB,Metodologia De Pesquisa   ,2CP,44,0,Aberta,['Eng De Computação'],"['4N3', '4N4']",['Maria De Lourdes Bernartt'],['Não']
MP22NB,Metodologia De Pesquisa   ,2EL,44,0,Aberta,['Engenharia Elétrica'],"['2T4', '2T5']",['Marlize Rubin Oliveira'],['Não']
MP22NB,Metodologia De Pesquisa   ,2MC,44,0,Aberta,['Eng Mecânica'],"['3T2', '3T3']",['Aruana Antonio Dos Passos'],['Não']
MP23NB,Metodologia De Pesquisa   ,3CV,44,0,Aberta,['Engenharia Civil'],"['2T2', '2T3']",['Marlize Rubin Oliveira'],['Não']
MC28CP,Modelagem E Controle De Sistemas A Eventos Discretos   ,8CP,44,0,Aberta,['Eng De Computação'],"['3M4', '3M5', '5M4', '5M5']",['Marcelo Teixeira'],['Engenharia De Computação 2011']
MA26EL,Máquinas Elétricas 2   ,6ELA,20,0,Aberta,['Engenharia Elétrica'],"['2M4', '2M5', '6M2', '6M3']",['Jose Fabio Kolzer'],['Não']
MA26EL,Máquinas Elétricas 2   ,6ELB,20,0,Aberta,['Engenharia Elétrica'],"['2M4', '2M5', '6M4', '6M5']",['Jose Fabio Kolzer'],['Não']
MM24NB,Métodos De Matemática Aplicada   ,4MC,44,0,Aberta,['Eng Mecânica'],"['3T4', '3T5', '5T4', '5T5']",['Aureo Quintas Garcia'],['Não']
MA28CP,Métodos De Aprendizagem   ,8CP,44,0,Aberta,['Eng De Computação'],"['4M4', '4M5', '6M4', '6M5']",['Dalcimar Casanova'],['Engenharia De Computação 2011']
OI25CP,Oficina De Integração   ,7CP,44,0,Aberta,['Eng De Computação'],"['2T1', '2T2', '2T3']",['Gustavo Weber Denardin'],['Não']
OP26EL,Ondas E Propagação   ,6EL,22,0,Aberta,['Engenharia Elétrica'],"['2M2', '2M3', '4M2', '4M3']",['Santo Tiveroli Filho'],['Não']
PR23EL,Princípio De Resistência Dos Materiais   ,3EL,30,0,Aberta,['Engenharia Elétrica'],"['2M3', '2M4', '2M5']",['Heloiza Aparecida Piassa Benetti'],['Não']
PR25CP,Princípio De Resistência Dos Materiais   ,5CP,44,0,Aberta,['Eng De Computação'],"['2T1', '2T2', '2T3']",['Volmir Sabbi'],['Não']
PS26CP,Princípio De Sistemas De Comunicação   ,5CP,44,0,Aberta,['Eng De Computação'],"['2N1', '2N2', '4N1', '4N2']",['Santo Tiveroli Filho'],['Não']
PE22NB,Probabilidade E Estatística   ,2CP,44,0,Aberta,['Eng De Computação'],"['4N1', '4N2', '5N1', '5N2']",['Edson Airton Gambetta'],['Não']
PE22NB,Probabilidade E Estatística   ,2CV,48,0,Aberta,['Engenharia Civil'],"['2M2', '2M3', '4M2', '4M3']",['Jose Donizetti De Lima'],['Não']
PE22NB,Probabilidade E Estatística   ,2EL,44,0,Aberta,['Engenharia Elétrica'],"['4T4', '4T5', '6T2', '6T3']",['Marcio Bennemann'],['Não']
PE23NB,Probabilidade E Estatística   ,3MC,44,0,Aberta,['Eng Mecânica'],"['4T2', '4T3', '6T4', '6T5']",['Marcio Bennemann'],['Não']
PO24CP,Programação Orientada A Objetos   ,4CP,44,0,Aberta,['Eng De Computação'],"['3T4', '3T5', '6T4', '6T5']",['Luciene De Oliveira Marin'],['Não']
PM25S,Programação Para Dispositivos Móveis   ,5SI,20,0,Aberta,['Tec Analise Des Sist'],"['2N4', '2N5', '3N4', '3N5']",['Robison Cris Brito'],['Não']
PS22HM,Psicologia Aplicada Ao Trabalho   ,HUMA10,44,0,Aberta,"['Eng De Computação', 'Engenharia Elétrica', 'Engenharia Civil', 'Eng Mecânica']","['2T4', '2T5']",['Sergio Paes De Barros'],"['Engenharia Mecânica 2', 'Engenharia De Computação 2011', 'Engenharia Elétrica.', 'Engenharia Civil.', 'Engenharia Mecânica']"
PS22HM,Psicologia Aplicada Ao Trabalho   ,HUMA11,44,0,Aberta,"['Eng De Computação', 'Engenharia Elétrica', 'Engenharia Civil', 'Eng Mecânica']","['4T2', '4T3']",['Sergio Paes De Barros'],"['Engenharia Mecânica 2', 'Engenharia De Computação 2011', 'Engenharia Elétrica.', 'Engenharia Civil.', 'Engenharia Mecânica']"
PS22HM,Psicologia Aplicada Ao Trabalho   ,HUMA12,44,0,Aberta,"['Eng De Computação', 'Engenharia Elétrica', 'Engenharia Civil', 'Eng Mecânica']","['3T2', '3T3']",['Sergio Paes De Barros'],"['Engenharia Mecânica 2', 'Engenharia De Computação 2011', 'Engenharia Elétrica.', 'Engenharia Civil.', 'Engenharia Mecânica']"
QS24S,Qualidade De Software   ,4SI,20,0,Aberta,['Tec Analise Des Sist'],"['6N1', '6N2', '6N3']",['Lucilia Yoshie Araki'],['Não']
QV22HM,Qualidade De Vida   ,HUMA3,44,0,Aberta,"['Eng De Computação', 'Engenharia Elétrica', 'Engenharia Civil', 'Eng Mecânica']","['3M4', '3M5']",['Darlan Roberto Busato'],"['Engenharia Mecânica 2', 'Engenharia De Computação 2011', 'Engenharia Civil.', 'Engenharia Mecânica', 'Engenharia Elétrica.']"
QV22HM,Qualidade De Vida   ,HUMA4,44,0,Aberta,"['Eng De Computação', 'Engenharia Elétrica', 'Engenharia Civil', 'Eng Mecânica']","['3T4', '3T5']",['Darlan Roberto Busato'],"['Engenharia Mecânica 2', 'Engenharia De Computação 2011', 'Engenharia Civil.', 'Engenharia Mecânica', 'Engenharia Elétrica.']"
QV22HM,Qualidade De Vida   ,HUMA5,44,0,Aberta,"['Eng De Computação', 'Engenharia Elétrica', 'Engenharia Civil', 'Eng Mecânica']","['5T4', '5T5']",['Darlan Roberto Busato'],"['Engenharia Mecânica 2', 'Engenharia De Computação 2011', 'Engenharia Civil.', 'Engenharia Mecânica', 'Engenharia Elétrica.']"
QV22HM,Qualidade De Vida   ,HUMA6,44,0,Aberta,"['Eng De Computação', 'Engenharia Elétrica', 'Engenharia Civil', 'Eng Mecânica']","['2M2', '2M3']",['Samoara Viacelli Da Luz'],"['Engenharia Mecânica 2', 'Engenharia De Computação 2011', 'Engenharia Civil.', 'Engenharia Mecânica', 'Engenharia Elétrica.']"
QV22HM,Qualidade De Vida   ,HUMA7,44,0,Aberta,"['Eng De Computação', 'Engenharia Elétrica', 'Engenharia Civil', 'Eng Mecânica']","['2T4', '2T5']",['Samoara Viacelli Da Luz'],"['Engenharia Mecânica 2', 'Engenharia De Computação 2011', 'Engenharia Civil.', 'Engenharia Mecânica', 'Engenharia Elétrica.']"
QV22HM,Qualidade De Vida   ,HUMA8,44,0,Aberta,"['Eng De Computação', 'Engenharia Elétrica', 'Engenharia Civil', 'Eng Mecânica']","['4T4', '4T5']",['Samoara Viacelli Da Luz'],"['Engenharia Mecânica 2', 'Engenharia De Computação 2011', 'Engenharia Civil.', 'Engenharia Mecânica', 'Engenharia Elétrica.']"
QU22NB,Química   ,2CPA,22,0,Aberta,['Eng De Computação'],"['3T2', '3T3', '4T4', '4T5', '6N1', '6N2']","['Cristiane Regina Budziak Parabocz', 'Vanderlei Aparecido De Lima']",['Não']
QU22NB,Química   ,2CPB,22,0,Aberta,['Eng De Computação'],"['3T2', '3T3', '4T4', '4T5', '6N1', '6N2']","['Cristiane Regina Budziak Parabocz', 'Vanderlei Aparecido De Lima']",['Não']
QU22NB,Química   ,2CVA,42,0,Aberta,['Engenharia Civil'],"['2T2', '2T3', '3T2', '3T3', '6M2', '6M3']","['Elidia Aparecida Vetter Ferri', 'Leandro Zatta']",['Não']
QU22NB,Química   ,2CVB,22,0,Aberta,['Engenharia Civil'],"['2T2', '2T3', '2T4', '2T5', '6M2', '6M3']","['Elidia Aparecida Vetter Ferri', 'Leandro Zatta']",['Não']
QU22NB,Química   ,2ELA,22,0,Aberta,['Engenharia Elétrica'],"['3T4', '3T5', '5T4', '5T5', '6M2', '6M3']",['Liliam Cristina Angelo'],['Não']
QU22NB,Química   ,2ELB,22,0,Aberta,['Engenharia Elétrica'],"['3T4', '3T5', '5T4', '5T5', '6M4', '6M5']",['Liliam Cristina Angelo'],['Não']
QU22NB,Química   ,2MCA,22,0,Aberta,['Eng Mecânica'],"['2T2', '2T3', '3T4', '3T5', '5T4', '5T5']","['Edilson Da Silva Ferreira', 'Liliam Cristina Angelo']",['Não']
QU22NB,Química   ,2MCB,22,0,Aberta,['Eng Mecânica'],"['3T4', '3T5', '4T2', '4T3', '5T4', '5T5']","['Edilson Da Silva Ferreira', 'Liliam Cristina Angelo']",['Não']
RC22S,Redes De Computadores   ,2SI,26,0,Aberta,['Tec Analise Des Sist'],"['3N3', '3N4', '3N5', '6N1', '6N2']",['Adriano Serckumecka'],['Não']
RC27CP,Redes De Computadores 1   ,6CP,44,0,Aberta,['Eng De Computação'],"['3N1', '3N2', '6T2', '6T3']",['Fabio Favarim'],['Não']
RC28CP,Redes De Computadores 2   ,7CP,44,0,Aberta,['Eng De Computação'],"['4N1', '4N2', '5N1', '5N2']",['Adriano Serckumecka'],['Não']
HL22HM,Relações Humanas E Liderança   ,HUMA9,44,0,Aberta,"['Eng De Computação', 'Engenharia Elétrica', 'Engenharia Civil', 'Eng Mecânica']","['4N1', '4N2']",['Sergio Paes De Barros'],"['Engenharia Mecânica 2', 'Engenharia Civil.', 'Engenharia De Computação 2011', 'Engenharia Mecânica', 'Engenharia Elétrica.']"
RM25CV,Resistência Dos Materiais 1   ,5CV,44,0,Aberta,['Engenharia Civil'],"['3M2', '3M3', '4M2', '4M3']",['Heloiza Aparecida Piassa Benetti'],['Não']
RO29CP,Robótica Móvel   ,8CP,44,0,Aberta,['Eng De Computação'],"['2N1', '2N2', '6N1', '6N2']",['Cesar Rafael Claure Torrico'],['Engenharia De Computação 2011']
SC28CP,Segurança Computacional   ,9CP,44,0,Aberta,['Eng De Computação'],"['3T2', '3T3', '6T2', '6T3']",['Adriano Serckumecka'],['Não']
SA25S,Segurança Em Aplicações   ,5SI,20,0,Aberta,['Tec Analise Des Sist'],"['4N1', '4N2', '6N4', '6N5']",['Erick Oliveira Rodrigues'],['Não']
SC25CP,Sistemas De Controle 1   ,5CP,44,0,Aberta,['Eng De Computação'],"['4T1', '4T2', '4T3', '6T2', '6T3']",['Kleiton De Morais Sousa'],['Não']
SC25EL,Sistemas De Controle 1   ,5ELA,22,0,Aberta,['Engenharia Elétrica'],"['2T4', '2T5', '2T6', '4M2', '4M3']",['Kleiton De Morais Sousa'],['Não']
SC25EL,Sistemas De Controle 1   ,5ELB,22,0,Aberta,['Engenharia Elétrica'],"['2T4', '2T5', '2T6', '4M4', '4M5']",['Kleiton De Morais Sousa'],['Não']
SC26CP,Sistemas De Controle 2   ,6CP,44,0,Aberta,['Eng De Computação'],"['2T4', '2T5', '4T4', '4T5']",['Rafael Cardoso'],['Não']
SC26EL,Sistemas De Controle 2   ,6EL,22,0,Aberta,['Engenharia Elétrica'],"['3M4', '3M5', '5M2', '5M3']",['Rafael Cardoso'],['Não']
SD25CP,Sistemas Digitais   ,5CP,44,0,Aberta,['Eng De Computação'],"['5N1', '5N2', '6T4', '6T5']",['Artur Tsuguiyoshi Hara'],['Não']
SD25EL,Sistemas Digitais   ,5EL,22,0,Aberta,['Engenharia Elétrica'],"['3T4', '3T5', '5M1', '5M2']",['Giovanni Alfredo Guarneri'],['Não']
SD29CP,Sistemas Distribuídos   ,8CP,44,0,Aberta,['Eng De Computação'],"['3T4', '3T5', '5T4', '5T5']",['Luis Cassiano Goularte Rista'],['Não']
SE28CP,Sistemas Embarcados   ,8CP,44,0,Aberta,['Eng De Computação'],"['3T2', '3T3', '4T4', '4T5']",['Gustavo Weber Denardin'],['Não']
SI27CP,Sistemas Inteligentes   ,8CP,44,0,Aberta,['Eng De Computação'],"['2T4', '2T5', '4N1', '4N2']",['Kathya Silvia Collazos Linares'],['Não']
SL24CP,Sistemas Lineares   ,4CP,44,0,Aberta,['Eng De Computação'],"['2T2', '2T3', '3T2', '3T3']",['Johnny Werner'],['Não']
SL24EL,Sistemas Lineares   ,4EL,22,0,Aberta,['Engenharia Elétrica'],"['2T4', '2T5', '4T4', '4T5']",['Johnny Werner'],['Não']
SM26CP,Sistemas Microcontrolados   ,6CP,44,0,Aberta,['Eng De Computação'],"['2N1', '2N2', '6T4', '6T5']",['Fabio Luiz Bertotti'],['Não']
SM26EL,Sistemas Microcontrolados   ,6EL,22,0,Aberta,['Engenharia Elétrica'],"['2T2', '2T3', '4T4', '4T5']",['Fabio Luiz Bertotti'],['Não']
SO25CP,Sistemas Operacionais   ,7CP,44,0,Aberta,['Eng De Computação'],"['5T4', '5T5', '6T2', '6T3']",['Dalcimar Casanova'],['Não']
TS25S,Testes De Software   ,6SI,10,0,Aberta,['Tec Analise Des Sist'],"['4N4', '4N5']",['Fabio Favarim'],['Não']
TC28CP,Trabalho De Conclusão De Curso 1   ,8CP,14,0,Fechada,['Eng De Computação'],"['4T2', '4T3']",['Marco Antonio De Castro Barbosa'],['Não']
PM26S,Tópicos Avançados Em Programação Para Dispositivos Móveis   ,6SI,10,0,Aberta,['Tec Analise Des Sist'],"['2N2', '2N3', '5N1', '5N2']",['Robison Cris Brito'],['Não']
VC23NB,Variáveis Complexas A   ,3CP,44,0,Aberta,['Eng De Computação'],"['2T4', '2T5', '4T4', '4T5']",['Ivan Italo Gonzales Gargate'],['Não']
VC23NB,Variáveis Complexas A   ,3EL,44,0,Aberta,['Engenharia Elétrica'],"['2T2', '2T3', '4T2', '4T3']",['Ivan Italo Gonzales Gargate'],['Não']
VC23NB,Variáveis Complexas A   ,EXT,44,0,Aberta,"['Eng De Computação', 'Engenharia Elétrica']","['3T3', '3T4', '6T3', '6T4']","['Fredy Maglorio Sobrado Suarez', 'Mateus Eduardo Salomao']",['Não']
EP27G,"Ética, Profissão E Cidadania   ",7G,44,0,Aberta,['Agronomia'],"['3M4', '3M5']",['Jorge Jamhour'],['Não']
EP29EL,"Ética, Profissão E Cidadania   ",9EL,22,0,Aberta,['Engenharia Elétrica'],"['5T2', '5T3']",['Santo Tiveroli Filho'],['Não']
EP29NB,"Ética, Profissão E Cidadania   ",9CP,22,0,Aberta,['Eng De Computação'],"['5T2', '5T3']",['Santo Tiveroli Filho'],['Não']
ET29NB,"Ética, Profissão E Cidadania   ",9MC,44,0,Aberta,['Eng Mecânica'],"['2M2', '2M3']",['Geocris Rodrigues Dos Santos'],['Não']
